{
  "project_info": {
    "project_number": "723379531164",
    "project_id": "androidappdjuraki",
    "storage_bucket": "androidappdjuraki.appspot.com"
  },
  "client": [
    {
      "client_info": {
        "mobilesdk_app_id": "1:723379531164:android:406ba90ecceb357b836c59",
        "android_client_info": {
          "package_name": "com.example.android_app_djuraki"
        }
      },
      "oauth_client": [
        {
          "client_id": "723379531164-97rnicdkmtrbd66tecptj7h5isdbuals.apps.googleusercontent.com",
          "client_type": 3
        }
      ],
      "api_key": [
        {
          "current_key": "AIzaSyAN1GdqEeQ3BHDfkRx4M1J8M_lNB3Pyh7c"
        }
      ],
      "services": {
        "appinvite_service": {
          "other_platform_oauth_client": [
            {
              "client_id": "723379531164-97rnicdkmtrbd66tecptj7h5isdbuals.apps.googleusercontent.com",
              "client_type": 3
            }
          ]
        }
      }
    }
  ],
  "configuration_version": "1"
}